<?xml version="1.0" encoding="utf-8"?>
<!-- Generator: Adobe Illustrator 16.0.3, SVG Export Plug-In . SVG Version: 6.00 Build 0)  -->
<!DOCTYPE svg PUBLIC "-//W3C//DTD SVG 1.1//EN" "http://www.w3.org/Graphics/SVG/1.1/DTD/svg11.dtd">
<svg version="1.1" id="Layer_1" xmlns="http://www.w3.org/2000/svg" xmlns:xlink="http://www.w3.org/1999/xlink" x="0px" y="0px"
	 width="69.835px" height="61.767px" viewBox="0 0 69.835 61.767" enable-background="new 0 0 69.835 61.767" xml:space="preserve">
<g>
	<g>
		<path fill-rule="evenodd" clip-rule="evenodd" fill="#FFA20D" d="M21.869,12.037c0.415,0.775,0.824,1.55,1.243,2.318
			c0.318,0.583,0.678,1.145,0.966,1.742c0.269,0.556-0.154,1.222-0.771,1.282c-0.17,0.016-0.341,0.009-0.512,0.009
			c-1.872,0.004-3.743,0.011-5.615,0.008c-0.68-0.001-1.361-0.042-2.041-0.04c-1.816,0.004-3.632,0.022-5.448,0.035
			c-0.303,0.002-0.606-0.012-0.909,0.003c-0.737,0.038-1.276-0.802-0.86-1.49c0.5-0.826,0.925-1.695,1.404-2.533
			c0.468-0.82,0.967-1.623,1.447-2.436c0.416-0.706,0.824-1.416,1.236-2.124c0.523-0.9,1.048-1.799,1.57-2.701
			c0.487-0.842,0.976-1.684,1.453-2.532c0.313-0.556,0.748-0.756,1.291-0.569c0.349,0.121,0.492,0.435,0.661,0.714
			c0.252,0.415,0.474,0.849,0.715,1.269c0.377,0.655,0.76,1.306,1.142,1.958c0.034,0.058,0.077,0.111,0.117,0.17
			c0.528-0.275,1.027-0.568,1.553-0.802c1.021-0.455,2.054-0.884,3.088-1.308c0.393-0.162,0.796-0.309,1.208-0.413
			c1.072-0.272,2.146-0.545,3.23-0.766c1.648-0.336,3.319-0.457,5-0.446c1.227,0.008,2.448,0.096,3.666,0.265
			c1.347,0.188,2.667,0.471,3.976,0.837c1.442,0.403,2.835,0.931,4.187,1.564c1.111,0.52,2.176,1.123,3.213,1.782
			c1.352,0.861,2.6,1.849,3.794,2.911c0.146,0.13,0.271,0.293,0.374,0.461c0.193,0.319,0.129,0.649-0.042,0.952
			c-0.458,0.806-0.926,1.606-1.391,2.407c-0.178,0.307-0.345,0.621-0.541,0.915c-0.315,0.472-0.981,0.536-1.401,0.159
			c-0.653-0.586-1.286-1.202-1.976-1.742c-0.751-0.588-1.542-1.131-2.345-1.647c-1.173-0.754-2.436-1.346-3.743-1.824
			c-0.921-0.337-1.866-0.627-2.821-0.853c-2.244-0.53-4.527-0.691-6.822-0.506c-0.994,0.08-1.978,0.291-2.963,0.457
			c-1.058,0.178-2.07,0.525-3.075,0.884c-0.574,0.205-1.131,0.461-1.682,0.725c-0.458,0.22-0.896,0.482-1.341,0.729
			C22.038,11.899,21.981,11.953,21.869,12.037z"/>
		<path fill-rule="evenodd" clip-rule="evenodd" fill="#FFA20D" d="M24.906,60.726c-2.384,0-4.769-0.005-7.152,0.006
			c-0.407,0.002-0.707-0.141-0.912-0.477c-0.223-0.364-0.161-0.716,0.051-1.073c0.538-0.909,1.06-1.828,1.59-2.741
			c0.277-0.476,0.137-1.022-0.308-1.323c-0.799-0.54-1.608-1.068-2.368-1.66c-0.759-0.591-1.497-1.216-2.181-1.891
			c-0.844-0.833-1.664-1.698-2.417-2.613c-0.679-0.825-1.272-1.723-1.867-2.614c-0.377-0.566-0.688-1.177-1.027-1.768
			c-0.706-1.23-1.268-2.525-1.718-3.867c-0.276-0.821-0.56-1.644-0.76-2.484c-0.241-1.008-0.407-2.035-0.583-3.058
			c-0.294-1.707-0.324-3.431-0.241-5.155c0.04-0.813,0.137-1.624,0.249-2.43c0.11-0.798,0.253-1.592,0.416-2.381
			c0.112-0.547,0.476-0.808,1.034-0.809c1.204-0.001,2.408,0.017,3.611-0.007c0.738-0.014,1.197,0.69,1.02,1.289
			c-0.371,1.244-0.576,2.528-0.669,3.82c-0.073,1.004-0.061,2.017-0.041,3.025c0.025,1.22,0.228,2.42,0.479,3.616
			c0.281,1.339,0.688,2.637,1.225,3.89c0.371,0.864,0.818,1.699,1.267,2.527c0.581,1.074,1.292,2.066,2.066,3.008
			c0.879,1.068,1.828,2.073,2.917,2.929c0.745,0.585,1.521,1.131,2.29,1.684c0.552,0.398,1.17,0.16,1.49-0.431
			c0.408-0.753,0.846-1.489,1.276-2.229c0.178-0.306,0.341-0.625,0.562-0.898c0.423-0.522,1.191-0.405,1.501,0.116
			c0.587,0.988,1.146,1.993,1.722,2.988c0.417,0.721,0.845,1.435,1.263,2.155c0.411,0.708,0.814,1.421,1.224,2.131
			c0.432,0.748,0.869,1.494,1.301,2.242c0.521,0.902,1.039,1.805,1.557,2.708c0.076,0.133,0.141,0.273,0.22,0.405
			c0.359,0.606-0.23,1.382-0.838,1.377C29.736,60.714,27.321,60.726,24.906,60.726z"/>
		<path fill-rule="evenodd" clip-rule="evenodd" fill="#FFA20D" d="M52.63,31.351c-0.575,0-1.149-0.014-1.724,0.003
			c-0.778,0.024-1.308-0.787-0.896-1.491c0.623-1.066,1.237-2.138,1.853-3.208c0.523-0.909,1.04-1.822,1.564-2.73
			c0.42-0.728,0.85-1.45,1.27-2.178c0.526-0.91,1.044-1.823,1.57-2.733c0.32-0.554,0.65-1.103,0.972-1.656
			c0.196-0.339,0.493-0.468,0.874-0.456c0.393,0.013,0.644,0.238,0.827,0.554c0.248,0.426,0.482,0.86,0.729,1.288
			c0.42,0.728,0.847,1.452,1.268,2.18c0.422,0.729,0.84,1.459,1.26,2.189c0.431,0.749,0.859,1.499,1.293,2.246
			c0.352,0.607,0.71,1.211,1.065,1.817c0.489,0.836,0.995,1.662,1.455,2.514c0.137,0.253,0.219,0.582,0.197,0.865
			c-0.039,0.477-0.474,0.798-0.961,0.799c-1.103,0.002-2.206,0.024-3.308-0.009c-0.604-0.018-1.016,0.445-1.032,1.002
			c-0.045,1.593-0.252,3.167-0.581,4.729c-0.304,1.443-0.697,2.859-1.229,4.234c-0.281,0.726-0.621,1.429-0.942,2.14
			c-0.572,1.269-1.264,2.475-2.066,3.607c-0.709,1-1.482,1.956-2.261,2.903c-0.37,0.45-0.81,0.844-1.235,1.246
			c-0.688,0.649-1.356,1.327-2.096,1.913c-0.862,0.684-1.771,1.316-2.7,1.908c-0.832,0.529-1.701,1.006-2.585,1.444
			c-0.807,0.401-1.652,0.728-2.487,1.071c-0.421,0.173-0.854,0.321-1.288,0.463c-0.683,0.224-1.075,0.051-1.427-0.572
			c-0.543-0.962-1.094-1.92-1.654-2.872c-0.248-0.421-0.378-0.831-0.07-1.278c0.175-0.255,0.438-0.347,0.716-0.43
			c0.466-0.141,0.934-0.283,1.395-0.441c1.223-0.417,2.393-0.957,3.516-1.593c1.538-0.87,2.983-1.873,4.247-3.116
			c0.699-0.687,1.407-1.374,2.037-2.123c1.136-1.352,2.096-2.832,2.848-4.432c0.439-0.936,0.825-1.902,1.159-2.88
			c0.442-1.291,0.758-2.619,0.899-3.982c0.065-0.632,0.112-1.267,0.183-1.898c0.064-0.575-0.426-1.083-1.001-1.043
			C53.735,31.382,53.182,31.352,52.63,31.351C52.63,31.352,52.63,31.352,52.63,31.351z"/>
	</g>
	<path fill-rule="evenodd" clip-rule="evenodd" fill="#FFA20D" d="M23.082,24.403c0.364,0.041,0.729,0.287,1.118,0.466
		c1.196,0.557,1.192,0.564,2.128-0.311c0.956-0.885,0.982-0.892,0.506-2.101c-0.679-1.729-0.479-1.628,1.01-2.185
		c0.828-0.307,1.655-0.611,2.486-0.912c0.642-0.233,0.922-0.101,1.165,0.558c0.206,0.544,0.413,1.084,0.598,1.642
		c0.088,0.263,0.207,0.392,0.517,0.368c0.601-0.044,1.202-0.041,1.796,0.074c0.294,0.054,0.402-0.088,0.5-0.317
		c0.25-0.571,0.513-1.128,0.773-1.692c0.253-0.53,0.551-0.642,1.091-0.402c1.081,0.487,2.155,0.98,3.226,1.483
		c0.598,0.277,0.692,0.551,0.422,1.172c-0.229,0.534-0.455,1.07-0.723,1.584c-0.165,0.314-0.115,0.5,0.149,0.72
		c0.406,0.334,0.77,0.719,1.067,1.155c0.203,0.297,0.409,0.365,0.75,0.22c0.551-0.237,1.122-0.436,1.689-0.628
		c0.538-0.179,0.818-0.054,1.021,0.473c0.432,1.145,0.848,2.287,1.263,3.438c0.183,0.521,0.034,0.804-0.493,1.014
		c-0.557,0.216-1.121,0.425-1.688,0.611c-0.317,0.101-0.453,0.25-0.426,0.607c0.034,0.422,0.054,0.872-0.027,1.288
		c-0.118,0.604,0.064,0.939,0.648,1.134c0.476,0.159,0.929,0.405,1.382,0.619c0.432,0.206,0.57,0.55,0.378,0.982
		c-0.51,1.145-1.043,2.284-1.574,3.425c-0.222,0.469-0.591,0.538-1.041,0.341c-0.56-0.253-1.127-0.503-1.682-0.783
		c-0.284-0.139-0.449-0.099-0.671,0.138c-0.382,0.412-0.798,0.793-1.244,1.142c-0.26,0.209-0.283,0.382-0.166,0.669
		c0.227,0.55,0.433,1.121,0.629,1.688c0.195,0.561,0.067,0.852-0.48,1.061c-1.121,0.429-2.246,0.852-3.374,1.26
		c-0.547,0.199-0.841,0.047-1.057-0.503c-0.219-0.561-0.439-1.122-0.625-1.692c-0.108-0.327-0.28-0.412-0.622-0.398
		c-0.54,0.023-1.087-0.007-1.624-0.064c-0.318-0.034-0.483,0.051-0.608,0.342c-0.24,0.57-0.513,1.128-0.773,1.691
		c-0.209,0.463-0.558,0.595-1.006,0.386c-1.135-0.503-2.263-1.021-3.381-1.547c-0.497-0.233-0.587-0.541-0.354-1.067
		c0.25-0.568,0.503-1.135,0.78-1.689c0.125-0.256,0.108-0.429-0.125-0.627c-0.442-0.379-0.848-0.797-1.182-1.277
		c-0.179-0.244-0.351-0.274-0.622-0.163c-0.574,0.237-1.159,0.446-1.743,0.646c-0.527,0.179-0.838,0.05-1.03-0.463
		c-0.432-1.138-0.854-2.287-1.263-3.439c-0.193-0.543-0.041-0.824,0.52-1.04c0.561-0.213,1.122-0.432,1.696-0.615
		c0.308-0.098,0.398-0.26,0.382-0.571c-0.031-0.581-0.047-1.165,0.074-1.742c0.057-0.284-0.081-0.402-0.311-0.51
		c-0.567-0.247-1.128-0.507-1.688-0.78c-0.541-0.264-0.655-0.547-0.412-1.084c0.486-1.098,1.003-2.186,1.506-3.273
		C22.467,24.626,22.649,24.406,23.082,24.403z M37.251,31.867c0.006-2.29-1.858-4.155-4.148-4.155c-2.283,0-4.167,1.875-4.167,4.155
		c0.003,2.273,1.881,4.148,4.167,4.148C35.393,36.018,37.251,34.161,37.251,31.867z"/>
</g>
</svg>
